# Example flight data from an ascend trajectory.
# 0:time(s) 1:altitude(m) 2:Mach(-) 3:IncomingAirTemp(K) 4:IncomingAirPressure(Pa) 5:IncomingAirDensity(kg/m^3) 6:HeatingRate(w/m^2)
0 30 0.044094 287.95 1.0096e+05 1.2215 9.6525
1.9658 79.234 0.10344 287.63 1.0038e+05 1.2157 124.1
5.2936 254.33 0.20702 286.5 98307 1.1954 980.72
10.152 722.23 0.36372 283.46 92944 1.1423 5116.4
20.373 2536.3 0.71317 271.66 74342 0.95333 33060
30.113 5069.5 0.91314 255.2 53520 0.7306 55314
40.12 7972.1 1.1711 236.33 35744 0.52689 46583
50.127 11295 1.6676 216.65 21602 0.34735 26983
60.201 14891 2.3042 216.65 12253 0.19702 21509
70.164 18579 3.1104 216.65 6849.5 0.11014 21334
80.025 22029 3.9863 218.68 3982 0.063435 24171
88.459 24570 5.1558 221.22 2683.1 0.042253 33718